Människovetaren och statistiken - 8 Grundläggande kunskaper i R-programmering
…
8.6 Tibbles

En sista datatyp är värd att nämna. Tibbles är en alternativ version av dataramar som fungerar enligt Tidy Data-principen. Detta är en slags designfilosofi utvecklad för R, där alla olika sätt att hantera data (datastrukturer, grafik, kategoriska variabler…) följer samma principer. Detaljerna kan bli klarare för dig när du jobbar med Tidy Data, men principen är att Tidy Data gör arbetet smidigare, mer organiserat och tydligare.

För att använda tibbles bör du installera paketet tibble. Vi kommer även att använda andra Tidyverse-verktyg, så om du vill kan du installera hela moderpaketet tidyverse på en gång. Se kapitel XXX om paketinstallation i detta skede, och återvänd här när du är klar.

En tibble skapas på samma sätt som en dataram, men med konstruktorfunktionen tibble(data). Om du har en färdig dataram kan du även omvandla den med funktionen as_tibble(dataram)2:
2 I versioner av Tibble äldre än 2.0.0 heter funktionen as.tibble().

library(tibble)
min_tibble <- as_tibble(min_dataram)
min_tibble

# A tibble: 100 × 3
       x     y     z
   <dbl> <int> <dbl>
 1 -2.35     1     5
 2 -0.47     2     5
 3  1.02     3     5
 4 -0.45     4     5
 5 -1.52     5     5
 6  1.07     6     5
 7  0.64     7     5
 8  0.15     8     5
 9  0.63     9     5
10 -0.28    10     5
# … with 90 more rows
…
