Människovetaren och statistiken - 9 R, del två
…
Rows: 819 Columns: 116
── Column specification ────────────────────────────────────────────────────────
Delimiter: ";"
chr   (1): fsd_li
dbl (115): fsd_no, fsd_vr, fsd_id, q1a_lk, q2_lk, q3, q4, q5, q6, q7, q8, q9...

ℹ Use `spec()` to retrieve the full column specification for this data.
ℹ Specify the column types or set `show_col_types = FALSE` to quiet this message.

Nu borde våra data finnas inladdade i objektet data! Vi kan granska detta genom att kalla data, vilket borde ge en förkortad version av tibbleobjektet:

data

# A tibble: 819 × 116
   fsd_no fsd_vr fsd_id fsd_li  q1a_lk q2_lk    q3    q4    q5    q6    q7    q8
    <dbl>  <dbl>  <dbl> <chr>    <dbl> <dbl> <dbl> <dbl> <dbl> <dbl> <dbl> <dbl>
 1   3200      1      1 (A) öp…      2     6     1     7     4     3     2     0
 2   3200      1      2 (A) öp…      2     5     1     6     4     3     2    NA
 3   3200      1      3 (A) öp…      2     6     1     4     4     1     1    NA
 4   3200      1      4 (A) öp…     NA     6     2     3     4     3     2    NA
 5   3200      1      5 (A) öp…      4     6     1     3     4     3     2    NA
 6   3200      1      6 (A) öp…      9     5     2     7     4     3     2    NA
 7   3200      1      7 (A) öp…      2     6     1     3     4     1     1    NA
 8   3200      1      8 (A) öp…      2     6     1     3     4     3     2    NA
 9   3200      1      9 (A) öp…      9     6     2     7     4     1     1    NA
10   3200      1     10 (A) öp…      2     2     1     2     1     3     2    NA
# … with 809 more rows, and 104 more variables: q9_1 <dbl>, q9_2 <dbl>,
#   q9_3 <dbl>, q9_4 <dbl>, q9_5 <dbl>, q9_6 <dbl>, q10 <dbl>, q11_1 <dbl>,
#   q11_2 <dbl>, q11_3 <dbl>, q11_4 <dbl>, q11_5 <dbl>, q12_1 <dbl>,
#   q12_2 <dbl>, q12_2b <dbl>, q12_2c <dbl>, q12_3 <dbl>, q12_4 <dbl>,
#   q12_5 <dbl>, q12_6 <dbl>, q12_7 <dbl>, q12_8 <dbl>, q12_9 <dbl>,
#   q12_10 <dbl>, q12_11 <dbl>, q12_12 <dbl>, q13_1 <dbl>, q13_2 <dbl>,
#   q14_1 <dbl>, q14_2 <dbl>, q15_1 <dbl>, q15_2 <dbl>, q15_3 <dbl>, …
…
